{
  "games": [
    {
      "title": "Dota 2",
      "entityType": "game",
      "logourl": "http://vignette3.wikia.nocookie.net/defenseoftheancients/images/6/64/Dota_2_Logo_only.png/revision/latest?cb=20110914005751"
    },
    {
      "title": "Counter-Strike",
      "entityType": "game",
      "logourl": "http://1.bp.blogspot.com/-vx1LglgA8oA/TcqsFF6lxmI/AAAAAAAADco/0K3BC94tJxc/s1600/Counter+Strike+1.0.png"
    },
    {
      "title": "World of tanks",
      "entityType": "game",
      "logourl": "https://d2omufubuy0uqr.cloudfront.net/mac.com.codeweavers.worldoftanks/icon-128.png"
    }
  ]
}